<?xml version="1.0" encoding="utf-8"?>
<!-- Generator: Adobe Illustrator 16.0.0, SVG Export Plug-In . SVG Version: 6.00 Build 0)  -->
<!DOCTYPE svg PUBLIC "-//W3C//DTD SVG 1.1//EN" "http://www.w3.org/Graphics/SVG/1.1/DTD/svg11.dtd">
<svg version="1.1" id="Layer_1" xmlns="http://www.w3.org/2000/svg" xmlns:xlink="http://www.w3.org/1999/xlink" x="0px" y="0px"
	 width="115px" height="118.273px" viewBox="0 0 115 118.273" enable-background="new 0 0 115 118.273" xml:space="preserve">
<g>
	<g>
		<g>
			<g>
				<path fill="#7F786D" d="M24.085,64.517c0.641,2.092,1.303,4.255,1.635,6.434c0.135,0.888,0.664,7.346,0.951,10.894
					c0.109,1.359,1.141,2.465,2.49,2.668l4.711,0.713c0.68,0.103,1.221,0.621,1.354,1.295l0.619,3.175
					c0.271,1.38,1.48,2.375,2.887,2.375l36.533-0.022c1.381-0.001,2.576-0.964,2.869-2.313l0.711-3.269
					c0.156-0.646,0.689-1.13,1.348-1.226l5.734-0.833c1.379-0.2,2.428-1.34,2.512-2.73c0.219-3.65,0.631-10.297,0.758-11.207
					c0.301-2.15,0.936-4.275,1.549-6.343c0.859-2.894,1.748-5.88,1.748-8.985c0-19.835-15.766-35.968-35.143-35.968
					S22.208,35.315,22.208,55.154C22.208,58.398,23.163,61.509,24.085,64.517z M61.931,62.687c0.223-5.633,5.273-7.05,10.908-6.827
					c5.633,0.223,9.715,2,9.492,7.634s-4.971,10.021-10.604,9.798C66.093,73.067,61.706,68.32,61.931,62.687z M58.616,73.741
					l3.656,5.415c0.324,0.48,0.369,1.097,0.115,1.619l-0.523,1.085c-0.271,0.563-0.842,0.92-1.465,0.92h-3.133h-3.131
					c-0.625,0-1.195-0.357-1.465-0.92l-0.525-1.085c-0.252-0.522-0.207-1.139,0.115-1.619l3.658-5.415
					C56.563,72.786,57.97,72.786,58.616,73.741z M41.864,55.859c5.633-0.223,10.684,1.194,10.906,6.827
					c0.223,5.634-4.162,10.381-9.797,10.604c-5.633,0.223-10.381-4.164-10.604-9.797C32.147,57.859,36.229,56.082,41.864,55.859z"/>
				<path fill="#7F786D" d="M103.177,14c0.438-2.691-0.381-5.548-2.463-7.619c-3.344-3.326-8.799-3.387-12.213-0.132
					c-3.568,3.405-3.617,9.059-0.15,12.526l-3.188,3.188c-1.273,1.273-1.273,3.339,0,4.612l5.438,5.438
					c1.273,1.273,3.338,1.273,4.613,0l3.186-3.188c3.469,3.468,9.123,3.417,12.527-0.151c3.256-3.412,3.195-8.867-0.133-12.211
					C108.724,14.381,105.866,13.562,103.177,14z"/>
				<path fill="#7F786D" d="M16.599,28.825l3.188,3.188c1.273,1.273,3.338,1.273,4.611,0l5.438-5.438
					c1.273-1.274,1.273-3.339,0-4.612l-3.188-3.188c3.469-3.468,3.418-9.122-0.15-12.526c-3.414-3.255-8.867-3.194-12.211,0.132
					c-2.082,2.071-2.902,4.928-2.463,7.619c-2.691-0.438-5.547,0.381-7.619,2.463c-3.326,3.344-3.387,8.798-0.131,12.211
					C7.478,32.242,13.13,32.293,16.599,28.825z"/>
				<path fill="#7F786D" d="M110.927,89.6c-3.404-3.569-9.059-3.619-12.525-0.151l-3.188-3.188c-1.275-1.274-3.34-1.274-4.613,0
					l-5.438,5.438c-1.273,1.273-1.273,3.339,0,4.612l3.188,3.188c-3.467,3.469-3.416,9.121,0.152,12.525
					c3.412,3.256,8.867,3.195,12.211-0.131c2.082-2.072,2.9-4.928,2.463-7.619c2.691,0.439,5.547-0.381,7.619-2.463
					C114.122,98.467,114.183,93.012,110.927,89.6z"/>
				<path fill="#7F786D" d="M11.823,104.273c-0.439,2.691,0.381,5.547,2.463,7.619c3.344,3.326,8.799,3.387,12.211,0.131
					c3.568-3.404,3.619-9.057,0.15-12.525l3.188-3.188c1.273-1.273,1.273-3.339,0-4.613l-5.438-5.437
					c-1.273-1.274-3.338-1.274-4.611,0l-3.188,3.188c-3.469-3.469-9.121-3.418-12.525,0.15c-3.256,3.413-3.195,8.868,0.131,12.212
					C6.276,103.893,9.132,104.711,11.823,104.273z"/>
			</g>
		</g>
	</g>
</g>
</svg>
